%YAML 1.1
%TAG !u! tag:unity3d.com,2011:
--- !u!74 &7400000
AnimationClip:
  m_ObjectHideFlags: 0
  m_CorrespondingSourceObject: {fileID: 0}
  m_PrefabInstance: {fileID: 0}
  m_PrefabAsset: {fileID: 0}
  m_Name: coin_animation
  serializedVersion: 6
  m_Legacy: 0
  m_Compressed: 0
  m_UseHighQualityCurve: 1
  m_RotationCurves: []
  m_CompressedRotationCurves: []
  m_EulerCurves: []
  m_PositionCurves: []
  m_ScaleCurves: []
  m_FloatCurves: []
  m_PPtrCurves:
  - curve:
    - time: 0
      value: {fileID: -6600900865227689935, guid: db0867dafe3a59940b8e911075880565,
        type: 3}
    - time: 0.083333336
      value: {fileID: 7681953369358509158, guid: db0867dafe3a59940b8e911075880565,
        type: 3}
    - time: 0.16666667
      value: {fileID: -3391854923635082864, guid: db0867dafe3a59940b8e911075880565,
        type: 3}
    - time: 0.25
      value: {fileID: -7567222759145961589, guid: db0867dafe3a59940b8e911075880565,
        type: 3}
    - time: 0.33333334
      value: {fileID: -1076667641312343847, guid: db0867dafe3a59940b8e911075880565,
        type: 3}
    - time: 0.41666666
      value: {fileID: 8740079431705150475, guid: db0867dafe3a59940b8e911075880565,
        type: 3}
    - time: 0.5
      value: {fileID: -4386268747937638061, guid: db0867dafe3a59940b8e911075880565,
        type: 3}
    - time: 0.5833333
      value: {fileID: -3139450351425127616, guid: db0867dafe3a59940b8e911075880565,
        type: 3}
    - time: 0.6666667
      value: {fileID: 807916175594325942, guid: db0867dafe3a59940b8e911075880565,
        type: 3}
    - time: 0.75
      value: {fileID: 1313974528224097594, guid: db0867dafe3a59940b8e911075880565,
        type: 3}
    - time: 0.8333333
      value: {fileID: 2918892082422361536, guid: db0867dafe3a59940b8e911075880565,
        type: 3}
    - time: 0.9166667
      value: {fileID: -3975240064473534432, guid: db0867dafe3a59940b8e911075880565,
        type: 3}
    - time: 1
      value: {fileID: 9054078382565916202, guid: db0867dafe3a59940b8e911075880565,
        type: 3}
    - time: 1.0833334
      value: {fileID: -6227343010395578925, guid: db0867dafe3a59940b8e911075880565,
        type: 3}
    - time: 1.1666666
      value: {fileID: -8759844002824975631, guid: db0867dafe3a59940b8e911075880565,
        type: 3}
    - time: 1.25
      value: {fileID: 1932372449999555067, guid: db0867dafe3a59940b8e911075880565,
        type: 3}
    - time: 1.3333334
      value: {fileID: -5363761536158532993, guid: db0867dafe3a59940b8e911075880565,
        type: 3}
    - time: 1.4166666
      value: {fileID: -2975980699105117454, guid: db0867dafe3a59940b8e911075880565,
        type: 3}
    - time: 1.5
      value: {fileID: 1033094869867966024, guid: db0867dafe3a59940b8e911075880565,
        type: 3}
    - time: 1.5833334
      value: {fileID: 5261409764594230743, guid: db0867dafe3a59940b8e911075880565,
        type: 3}
    - time: 1.6666666
      value: {fileID: -8696616165673623719, guid: db0867dafe3a59940b8e911075880565,
        type: 3}
    - time: 1.75
      value: {fileID: -8581187906473542700, guid: db0867dafe3a59940b8e911075880565,
        type: 3}
    - time: 1.8333334
      value: {fileID: -7658069005779494916, guid: db0867dafe3a59940b8e911075880565,
        type: 3}
    - time: 1.9166666
      value: {fileID: -1658288213063128863, guid: db0867dafe3a59940b8e911075880565,
        type: 3}
    - time: 2
      value: {fileID: 6490720669441088295, guid: db0867dafe3a59940b8e911075880565,
        type: 3}
    - time: 2.0833333
      value: {fileID: 1227325014483564741, guid: db0867dafe3a59940b8e911075880565,
        type: 3}
    - time: 2.1666667
      value: {fileID: 2033909484125374610, guid: db0867dafe3a59940b8e911075880565,
        type: 3}
    - time: 2.25
      value: {fileID: 5189687556063945556, guid: db0867dafe3a59940b8e911075880565,
        type: 3}
    - time: 2.3333333
      value: {fileID: -693114236323403861, guid: db0867dafe3a59940b8e911075880565,
        type: 3}
    - time: 2.4166667
      value: {fileID: -6435213965453705802, guid: db0867dafe3a59940b8e911075880565,
        type: 3}
    - time: 2.5
      value: {fileID: 2502835747174381310, guid: db0867dafe3a59940b8e911075880565,
        type: 3}
    - time: 2.5833333
      value: {fileID: 6755218496711119138, guid: db0867dafe3a59940b8e911075880565,
        type: 3}
    attribute: m_Sprite
    path: 
    classID: 212
    script: {fileID: 0}
  m_SampleRate: 12
  m_WrapMode: 0
  m_Bounds:
    m_Center: {x: 0, y: 0, z: 0}
    m_Extent: {x: 0, y: 0, z: 0}
  m_ClipBindingConstant:
    genericBindings:
    - serializedVersion: 2
      path: 0
      attribute: 0
      script: {fileID: 0}
      typeID: 212
      customType: 23
      isPPtrCurve: 1
    pptrCurveMapping:
    - {fileID: -6600900865227689935, guid: db0867dafe3a59940b8e911075880565, type: 3}
    - {fileID: 7681953369358509158, guid: db0867dafe3a59940b8e911075880565, type: 3}
    - {fileID: -3391854923635082864, guid: db0867dafe3a59940b8e911075880565, type: 3}
    - {fileID: -7567222759145961589, guid: db0867dafe3a59940b8e911075880565, type: 3}
    - {fileID: -1076667641312343847, guid: db0867dafe3a59940b8e911075880565, type: 3}
    - {fileID: 8740079431705150475, guid: db0867dafe3a59940b8e911075880565, type: 3}
    - {fileID: -4386268747937638061, guid: db0867dafe3a59940b8e911075880565, type: 3}
    - {fileID: -3139450351425127616, guid: db0867dafe3a59940b8e911075880565, type: 3}
    - {fileID: 807916175594325942, guid: db0867dafe3a59940b8e911075880565, type: 3}
    - {fileID: 1313974528224097594, guid: db0867dafe3a59940b8e911075880565, type: 3}
    - {fileID: 2918892082422361536, guid: db0867dafe3a59940b8e911075880565, type: 3}
    - {fileID: -3975240064473534432, guid: db0867dafe3a59940b8e911075880565, type: 3}
    - {fileID: 9054078382565916202, guid: db0867dafe3a59940b8e911075880565, type: 3}
    - {fileID: -6227343010395578925, guid: db0867dafe3a59940b8e911075880565, type: 3}
    - {fileID: -8759844002824975631, guid: db0867dafe3a59940b8e911075880565, type: 3}
    - {fileID: 1932372449999555067, guid: db0867dafe3a59940b8e911075880565, type: 3}
    - {fileID: -5363761536158532993, guid: db0867dafe3a59940b8e911075880565, type: 3}
    - {fileID: -2975980699105117454, guid: db0867dafe3a59940b8e911075880565, type: 3}
    - {fileID: 1033094869867966024, guid: db0867dafe3a59940b8e911075880565, type: 3}
    - {fileID: 5261409764594230743, guid: db0867dafe3a59940b8e911075880565, type: 3}
    - {fileID: -8696616165673623719, guid: db0867dafe3a59940b8e911075880565, type: 3}
    - {fileID: -8581187906473542700, guid: db0867dafe3a59940b8e911075880565, type: 3}
    - {fileID: -7658069005779494916, guid: db0867dafe3a59940b8e911075880565, type: 3}
    - {fileID: -1658288213063128863, guid: db0867dafe3a59940b8e911075880565, type: 3}
    - {fileID: 6490720669441088295, guid: db0867dafe3a59940b8e911075880565, type: 3}
    - {fileID: 1227325014483564741, guid: db0867dafe3a59940b8e911075880565, type: 3}
    - {fileID: 2033909484125374610, guid: db0867dafe3a59940b8e911075880565, type: 3}
    - {fileID: 5189687556063945556, guid: db0867dafe3a59940b8e911075880565, type: 3}
    - {fileID: -693114236323403861, guid: db0867dafe3a59940b8e911075880565, type: 3}
    - {fileID: -6435213965453705802, guid: db0867dafe3a59940b8e911075880565, type: 3}
    - {fileID: 2502835747174381310, guid: db0867dafe3a59940b8e911075880565, type: 3}
    - {fileID: 6755218496711119138, guid: db0867dafe3a59940b8e911075880565, type: 3}
  m_AnimationClipSettings:
    serializedVersion: 2
    m_AdditiveReferencePoseClip: {fileID: 0}
    m_AdditiveReferencePoseTime: 0
    m_StartTime: 0
    m_StopTime: 2.6666665
    m_OrientationOffsetY: 0
    m_Level: 0
    m_CycleOffset: 0
    m_HasAdditiveReferencePose: 0
    m_LoopTime: 1
    m_LoopBlend: 0
    m_LoopBlendOrientation: 0
    m_LoopBlendPositionY: 0
    m_LoopBlendPositionXZ: 0
    m_KeepOriginalOrientation: 0
    m_KeepOriginalPositionY: 1
    m_KeepOriginalPositionXZ: 0
    m_HeightFromFeet: 0
    m_Mirror: 0
  m_EditorCurves: []
  m_EulerEditorCurves: []
  m_HasGenericRootTransform: 0
  m_HasMotionFloatCurves: 0
  m_Events: []
